id,name,created_at,updated_at,csort
1,Analog Mixer,2019-02-15 09:56:02,2019-02-15 09:56:02,1
2,Audio Interface ultimate bundle,2019-02-15 09:56:02,2019-02-15 09:56:02,2
3,Condenser Microphone,2019-02-15 09:56:02,2019-02-15 09:56:02,3
4,Headphone,2019-02-15 09:56:02,2019-02-15 09:56:02,1
5,Headphone ear coushin,2019-02-15 09:56:02,2019-02-15 09:56:02,2
6,Hybrid Mixer,2019-02-15 09:56:02,2019-02-15 09:56:02,2
7,In-ear monitor headphone,2019-02-15 09:56:02,2019-02-15 09:56:02,2
8,Microphone,2019-02-15 09:56:02,2019-02-15 09:56:02,1
9,MIDI,2019-02-15 09:56:02,2019-02-15 09:56:02,1
10,Monitor Controller,2019-02-15 09:56:02,2019-02-15 09:56:02,2
11,Recording Mixer,2019-02-15 09:56:02,2019-02-15 09:56:02,3
12,Studio Monitors,2019-02-15 09:56:02,2019-02-15 09:56:02,4
13,Nth,2019-02-15 09:56:02,2019-02-15 09:56:02,3
