Model,Name,Price,Range,QTY,Description,Brand,Category
1202VLZ4,Mackie 1202VLZ4 Analog Mixer,270,40011,1,astgvy,Mackie,Analog Mixer
1402VLZ4,Mackie 1402VLZ4 Analog Mixer,390,40011,2,wertf,Mackie,Analog Mixer
1642VLZ4,Mackie 1602VLZ4 Analog Mixer,690,40011,3,er4t,Mackie,Analog Mixer
1818VSL,PreSonus AudioBox 1818 VSL,0,40011,4,astgvy,PreSonus,-
402VLZ4,Mackie 402VLZ4 Analog Mixer,120,40011,5,wertf,Mackie,Analog Mixer
44VSL,PreSonus AudioBox 44 VSL,0,40011,6,er4t,PreSonus,-
510FS001,PreSonus 510-FS001,0,40011,7,astgvy,PreSonus,-
710 -TWIN FINITY,Universal audio 710 -TWIN FINI,1500000,40001,8,wertf,-,-
7KIT,Samson Seven-Piece Drum Mic Sy,390000,40001,9,er4t,-,-
